M48
;Layer_Color=9474304
;FILE_FORMAT=4:2
METRIC,LZ
;TYPE=PLATED
T2F00S00C0.60
%
G90
G05
T02
G00X002949Y00317
M15
G01X003189
M16
G00X002769Y00355
M15
G01Y00379
M16
G00X003389Y00355
M15
G01Y00379
M16
M17
M30
